C:\Users\Qbex\workspace\facelm\src\main\java\br\com\spotdev\facelm\console\commands\CommandEmail.java
C:\Users\Qbex\workspace\facelm\src\main\java\br\com\spotdev\facelm\scrapper\Envio.java
C:\Users\Qbex\workspace\facelm\src\main\java\br\com\spotdev\facelm\console\Command.java
C:\Users\Qbex\workspace\facelm\src\main\java\br\com\spotdev\facelm\console\commands\CommandSenha.java
C:\Users\Qbex\workspace\facelm\src\main\java\br\com\spotdev\facelm\scrapper\Facebook.java
C:\Users\Qbex\workspace\facelm\src\main\java\br\com\spotdev\facelm\scrapper\enums\Estado.java
C:\Users\Qbex\workspace\facelm\src\main\java\br\com\spotdev\facelm\scrapper\enums\Tipo.java
C:\Users\Qbex\workspace\facelm\src\main\java\br\com\spotdev\facelm\console\commands\CommandCategoria.java
C:\Users\Qbex\workspace\facelm\src\main\java\br\com\spotdev\facelm\console\commands\CommandIntervalo.java
C:\Users\Qbex\workspace\facelm\src\main\java\br\com\spotdev\facelm\console\commands\CommandTipo.java
C:\Users\Qbex\workspace\facelm\src\main\java\br\com\spotdev\facelm\scrapper\events\FacebookEnvioEvent.java
C:\Users\Qbex\workspace\facelm\src\main\java\br\com\spotdev\facelm\console\CommandEventImpl.java
C:\Users\Qbex\workspace\facelm\src\main\java\br\com\spotdev\facelm\console\commands\CommandMessage.java
C:\Users\Qbex\workspace\facelm\src\main\java\br\com\spotdev\facelm\scrapper\Connection.java
C:\Users\Qbex\workspace\facelm\src\main\java\br\com\spotdev\facelm\scrapper\Utils.java
C:\Users\Qbex\workspace\facelm\src\main\java\br\com\spotdev\facelm\console\commands\CommandEstado.java
C:\Users\Qbex\workspace\facelm\src\main\java\br\com\spotdev\facelm\FacebookLM.java
C:\Users\Qbex\workspace\facelm\src\main\java\br\com\spotdev\facelm\scrapper\enums\Categoria.java
C:\Users\Qbex\workspace\facelm\src\main\java\br\com\spotdev\facelm\scrapper\SendingAlreadyStarted.java
